{
  "version": "1",
  "system": "fate",
  "author": {
    "username": "SoulLink",
    "email": "jonaswaeber@gmail.com"
  },
  "unique_reference": "average_nameless_npc-soullink-4",
  "name": "Average Nameless NPC",
  "display_template": "",
  "description": "The weakest of all adversary. Exist to make the players look awesome!",
  "fields": {
    "name": {
      "input": "string",
      "label": "Name",
      "placeholder": "The name of theAverage Nameless NPC",
      "required": true
    },
    "character_aspect_1": {
      "input": "string",
      "label": "Character Aspect 1",
      "description": "A generic aspect that can be used against this character.",
      "placeholder": ""
    },
    "character_aspect_2": {
      "input": "string",
      "label": "Character Aspect 2",
      "description": "An additional character aspect.",
      "placeholder": ""
    },
    "average_1_skill_1": {
      "input": "select",
      "label": "Average (+1) Skill 1",
      "description": "Should support whatever this NPC is going to use to compete in a conflict, contest or challenge.",
      "placeholder": "",
      "options": {
        "None": "None",
        "Athletics": "Athletics",
        "Burglary": "Burglary",
        "Contacts": "Contacts",
        "Crafts": "Crafts",
        "Deceive": "Deceive",
        "Drive": "Drive",
        "Empathy": "Empathy",
        "Fight": "Fight",
        "Investigate": "Investigate",
        "Lore": "Lore",
        "Notice": "Notice",
        "Physique": "Physique",
        "Provoke": "Provoke",
        "Rapport": "Rapport",
        "Resources": "Resources",
        "Shoot": "Shoot",
        "Stealth": "Stealth",
        "Will": "Will"
      }
    },
    "average_1_skill_2": {
      "input": "select",
      "label": "Average (+1) Skill 2",
      "description": "An additional support skill.",
      "placeholder": "",
      "options": {
        "None": "None",
        "Athletics": "Athletics",
        "Burglary": "Burglary",
        "Contacts": "Contacts",
        "Crafts": "Crafts",
        "Deceive": "Deceive",
        "Drive": "Drive",
        "Empathy": "Empathy",
        "Fight": "Fight",
        "Investigate": "Investigate",
        "Lore": "Lore",
        "Notice": "Notice",
        "Physique": "Physique",
        "Provoke": "Provoke",
        "Rapport": "Rapport",
        "Resources": "Resources",
        "Shoot": "Shoot",
        "Stealth": "Stealth",
        "Will": "Will"
      }
    }
  }
}